…
Similarly, deal with the returns of characters.

``` r
returns <- av %>%
  pivot_longer(cols = starts_with("Return"), names_to = "Time", values_to = "Return") %>%
  filter(Return != "") %>%
  mutate(Time = parse_number(Time))

returns
```

    ## # A tibble: 89 × 18
    ##    URL                Name.Alias Appearances Current. Gender Probationary.Introl
    ##    <chr>              <chr>            <int> <chr>    <chr>  <chr>              
    ##  1 http://marvel.wik… "Henry Jo…        1269 YES      MALE   ""                 
    ##  2 http://marvel.wik… "Janet va…        1165 YES      FEMALE ""                 
    ##  3 http://marvel.wik… "Anthony …        3068 YES      MALE   ""                 
    ##  4 http://marvel.wik… "Robert B…        2089 YES      MALE   ""                 
    ##  5 http://marvel.wik… "Thor Odi…        2402 YES      MALE   ""                 
    ##  6 http://marvel.wik… "Thor Odi…        2402 YES      MALE   ""                 
    ##  7 http://marvel.wik… "Steven R…        3458 YES      MALE   ""                 
    ##  8 http://marvel.wik… "Clinton …        1456 YES      MALE   ""                 
    ##  9 http://marvel.wik… "Clinton …        1456 YES      MALE   ""                 
    ## 10 http://marvel.wik… "Pietro M…         769 YES      MALE   ""                 
    ## # ℹ 79 more rows
    ## # ℹ 12 more variables: Full.Reserve.Avengers.Intro <chr>, Year <int>,
    ## #   Years.since.joining <int>, Honorary <chr>, Death1 <chr>, Death2 <chr>,
    ## #   Death3 <chr>, Death4 <chr>, Death5 <chr>, Notes <chr>, Time <dbl>,
    ## #   Return <chr>
…
